[
{
    "fields": {
        "model": "logentry",
        "app_label": "admin"
    },
    "model": "contenttypes.contenttype",
    "pk": 1
},
{
    "fields": {
        "model": "permission",
        "app_label": "auth"
    },
    "model": "contenttypes.contenttype",
    "pk": 2
},
{
    "fields": {
        "model": "group",
        "app_label": "auth"
    },
    "model": "contenttypes.contenttype",
    "pk": 3
},
{
    "fields": {
        "model": "user",
        "app_label": "auth"
    },
    "model": "contenttypes.contenttype",
    "pk": 4
},
{
    "fields": {
        "model": "contenttype",
        "app_label": "contenttypes"
    },
    "model": "contenttypes.contenttype",
    "pk": 5
},
{
    "fields": {
        "model": "session",
        "app_label": "sessions"
    },
    "model": "contenttypes.contenttype",
    "pk": 6
},
{
    "fields": {
        "model": "competitor",
        "app_label": "achievements"
    },
    "model": "contenttypes.contenttype",
    "pk": 7
},
{
    "fields": {
        "model": "group",
        "app_label": "achievements"
    },
    "model": "contenttypes.contenttype",
    "pk": 8
},
{
    "fields": {
        "expire_date": "2015-12-10T11:34:47.212Z",
        "session_data": "ZjYzMTliZmMxNTQ2MGM2NDIxZTQyYjcxNmVhNDdhMTUxOTlkMTE2Yzp7Il9hdXRoX3VzZXJfaGFzaCI6IjI3ZjI5OTZhNTJiODAyNDRmYmJmYzllZWUxODVlOGY0YmVhOWNmMzkiLCJfYXV0aF91c2VyX2JhY2tlbmQiOiJkamFuZ28uY29udHJpYi5hdXRoLmJhY2tlbmRzLk1vZGVsQmFja2VuZCIsIl9hdXRoX3VzZXJfaWQiOiIxIn0="
    },
    "model": "sessions.session",
    "pk": "7d9ooaj7v2v6ceijvdiioc0che0c6fos"
},
{
    "fields": {
        "expire_date": "2015-12-10T23:10:17.073Z",
        "session_data": "ZjYzMTliZmMxNTQ2MGM2NDIxZTQyYjcxNmVhNDdhMTUxOTlkMTE2Yzp7Il9hdXRoX3VzZXJfaGFzaCI6IjI3ZjI5OTZhNTJiODAyNDRmYmJmYzllZWUxODVlOGY0YmVhOWNmMzkiLCJfYXV0aF91c2VyX2JhY2tlbmQiOiJkamFuZ28uY29udHJpYi5hdXRoLmJhY2tlbmRzLk1vZGVsQmFja2VuZCIsIl9hdXRoX3VzZXJfaWQiOiIxIn0="
    },
    "model": "sessions.session",
    "pk": "cm5x5h7o5e5mbq9v1yosspf9og2jdrfn"
},
{
    "fields": {
        "name": "Scouting Hoboken"
    },
    "model": "achievements.group",
    "pk": 1
},
{
    "fields": {
        "name": "28 Zaoeja"
    },
    "model": "achievements.group",
    "pk": 2
},
{
    "fields": {
        "name": "2646 Fenix"
    },
    "model": "achievements.group",
    "pk": 3
},
{
    "fields": {
        "name": "4811 Kristus Koning"
    },
    "model": "achievements.group",
    "pk": 4
},
{
    "fields": {
        "name": "25 St. Joris"
    },
    "model": "achievements.group",
    "pk": 5
},
{
    "fields": {
        "name": "54 Valaar"
    },
    "model": "achievements.group",
    "pk": 6
},
{
    "fields": {
        "codename": "add_logentry",
        "name": "Can add log entry",
        "content_type": 1
    },
    "model": "auth.permission",
    "pk": 1
},
{
    "fields": {
        "codename": "change_logentry",
        "name": "Can change log entry",
        "content_type": 1
    },
    "model": "auth.permission",
    "pk": 2
},
{
    "fields": {
        "codename": "delete_logentry",
        "name": "Can delete log entry",
        "content_type": 1
    },
    "model": "auth.permission",
    "pk": 3
},
{
    "fields": {
        "codename": "add_permission",
        "name": "Can add permission",
        "content_type": 2
    },
    "model": "auth.permission",
    "pk": 4
},
{
    "fields": {
        "codename": "change_permission",
        "name": "Can change permission",
        "content_type": 2
    },
    "model": "auth.permission",
    "pk": 5
},
{
    "fields": {
        "codename": "delete_permission",
        "name": "Can delete permission",
        "content_type": 2
    },
    "model": "auth.permission",
    "pk": 6
},
{
    "fields": {
        "codename": "add_group",
        "name": "Can add group",
        "content_type": 3
    },
    "model": "auth.permission",
    "pk": 7
},
{
    "fields": {
        "codename": "change_group",
        "name": "Can change group",
        "content_type": 3
    },
    "model": "auth.permission",
    "pk": 8
},
{
    "fields": {
        "codename": "delete_group",
        "name": "Can delete group",
        "content_type": 3
    },
    "model": "auth.permission",
    "pk": 9
},
{
    "fields": {
        "codename": "add_user",
        "name": "Can add user",
        "content_type": 4
    },
    "model": "auth.permission",
    "pk": 10
},
{
    "fields": {
        "codename": "change_user",
        "name": "Can change user",
        "content_type": 4
    },
    "model": "auth.permission",
    "pk": 11
},
{
    "fields": {
        "codename": "delete_user",
        "name": "Can delete user",
        "content_type": 4
    },
    "model": "auth.permission",
    "pk": 12
},
{
    "fields": {
        "codename": "add_contenttype",
        "name": "Can add content type",
        "content_type": 5
    },
    "model": "auth.permission",
    "pk": 13
},
{
    "fields": {
        "codename": "change_contenttype",
        "name": "Can change content type",
        "content_type": 5
    },
    "model": "auth.permission",
    "pk": 14
},
{
    "fields": {
        "codename": "delete_contenttype",
        "name": "Can delete content type",
        "content_type": 5
    },
    "model": "auth.permission",
    "pk": 15
},
{
    "fields": {
        "codename": "add_session",
        "name": "Can add session",
        "content_type": 6
    },
    "model": "auth.permission",
    "pk": 16
},
{
    "fields": {
        "codename": "change_session",
        "name": "Can change session",
        "content_type": 6
    },
    "model": "auth.permission",
    "pk": 17
},
{
    "fields": {
        "codename": "delete_session",
        "name": "Can delete session",
        "content_type": 6
    },
    "model": "auth.permission",
    "pk": 18
},
{
    "fields": {
        "codename": "add_competitor",
        "name": "Can add competitor",
        "content_type": 7
    },
    "model": "auth.permission",
    "pk": 19
},
{
    "fields": {
        "codename": "change_competitor",
        "name": "Can change competitor",
        "content_type": 7
    },
    "model": "auth.permission",
    "pk": 20
},
{
    "fields": {
        "codename": "delete_competitor",
        "name": "Can delete competitor",
        "content_type": 7
    },
    "model": "auth.permission",
    "pk": 21
},
{
    "fields": {
        "codename": "add_group",
        "name": "Can add group",
        "content_type": 8
    },
    "model": "auth.permission",
    "pk": 22
},
{
    "fields": {
        "codename": "change_group",
        "name": "Can change group",
        "content_type": 8
    },
    "model": "auth.permission",
    "pk": 23
},
{
    "fields": {
        "codename": "delete_group",
        "name": "Can delete group",
        "content_type": 8
    },
    "model": "auth.permission",
    "pk": 24
},
{
    "fields": {
        "username": "Pieter",
        "first_name": "",
        "last_name": "",
        "is_active": true,
        "is_superuser": true,
        "is_staff": true,
        "last_login": "2015-11-26T23:10:17.071Z",
        "groups": [],
        "user_permissions": [],
        "password": "pbkdf2_sha256$20000$9EUw64cqmIM9$u+92G8WwTc6E5s0fkW/udxHk3ktRBtkR4h4gAnwEdts=",
        "email": "komendrinken@pieterlauwers.be",
        "date_joined": "2015-11-26T11:34:28.064Z"
    },
    "model": "auth.user",
    "pk": 1
},
{
    "fields": {
        "action_flag": 1,
        "action_time": "2015-11-26T11:39:51.022Z",
        "object_repr": "Scouting Hoboken",
        "object_id": "1",
        "change_message": "",
        "user": 1,
        "content_type": 8
    },
    "model": "admin.logentry",
    "pk": 1
},
{
    "fields": {
        "action_flag": 1,
        "action_time": "2015-11-26T11:40:00.977Z",
        "object_repr": "28 Zaoeja",
        "object_id": "2",
        "change_message": "",
        "user": 1,
        "content_type": 8
    },
    "model": "admin.logentry",
    "pk": 2
},
{
    "fields": {
        "action_flag": 1,
        "action_time": "2015-11-26T11:40:08.863Z",
        "object_repr": "2646 Fenix",
        "object_id": "3",
        "change_message": "",
        "user": 1,
        "content_type": 8
    },
    "model": "admin.logentry",
    "pk": 3
},
{
    "fields": {
        "action_flag": 1,
        "action_time": "2015-11-26T11:40:14.971Z",
        "object_repr": "4811 Kristus Koning",
        "object_id": "4",
        "change_message": "",
        "user": 1,
        "content_type": 8
    },
    "model": "admin.logentry",
    "pk": 4
},
{
    "fields": {
        "action_flag": 1,
        "action_time": "2015-11-26T11:40:31.084Z",
        "object_repr": "25 St. Joris",
        "object_id": "5",
        "change_message": "",
        "user": 1,
        "content_type": 8
    },
    "model": "admin.logentry",
    "pk": 5
},
{
    "fields": {
        "action_flag": 1,
        "action_time": "2015-11-26T11:40:49.118Z",
        "object_repr": "54 Valaar",
        "object_id": "6",
        "change_message": "",
        "user": 1,
        "content_type": 8
    },
    "model": "admin.logentry",
    "pk": 6
},
{
    "fields": {
        "action_flag": 3,
        "action_time": "2015-11-26T23:14:19.475Z",
        "object_repr": "Pieter",
        "object_id": "5",
        "change_message": "",
        "user": 1,
        "content_type": 7
    },
    "model": "admin.logentry",
    "pk": 7
},
{
    "fields": {
        "action_flag": 3,
        "action_time": "2015-11-26T23:17:02.808Z",
        "object_repr": "Test",
        "object_id": "6",
        "change_message": "",
        "user": 1,
        "content_type": 7
    },
    "model": "admin.logentry",
    "pk": 8
},
{
    "fields": {
        "action_flag": 3,
        "action_time": "2015-11-26T23:17:02.815Z",
        "object_repr": "Jan",
        "object_id": "4",
        "change_message": "",
        "user": 1,
        "content_type": 7
    },
    "model": "admin.logentry",
    "pk": 9
},
{
    "fields": {
        "action_flag": 3,
        "action_time": "2015-11-26T23:17:02.817Z",
        "object_repr": "Jan",
        "object_id": "3",
        "change_message": "",
        "user": 1,
        "content_type": 7
    },
    "model": "admin.logentry",
    "pk": 10
},
{
    "fields": {
        "action_flag": 3,
        "action_time": "2015-11-26T23:17:02.817Z",
        "object_repr": "Jan",
        "object_id": "2",
        "change_message": "",
        "user": 1,
        "content_type": 7
    },
    "model": "admin.logentry",
    "pk": 11
},
{
    "fields": {
        "action_flag": 3,
        "action_time": "2015-11-26T23:17:02.818Z",
        "object_repr": "Jan",
        "object_id": "1",
        "change_message": "",
        "user": 1,
        "content_type": 7
    },
    "model": "admin.logentry",
    "pk": 12
},
{
    "fields": {
        "action_flag": 3,
        "action_time": "2015-11-26T23:34:58.565Z",
        "object_repr": "Jan",
        "object_id": "2",
        "change_message": "",
        "user": 1,
        "content_type": 7
    },
    "model": "admin.logentry",
    "pk": 13
},
{
    "fields": {
        "action_flag": 2,
        "action_time": "2015-11-26T23:49:12.260Z",
        "object_repr": "Pieter",
        "object_id": "1",
        "change_message": "Changed photo, photo_thumb and blocked.",
        "user": 1,
        "content_type": 7
    },
    "model": "admin.logentry",
    "pk": 14
},
{
    "fields": {
        "action_flag": 2,
        "action_time": "2015-11-26T23:54:20.599Z",
        "object_repr": "Pieter",
        "object_id": "1",
        "change_message": "Changed blocked.",
        "user": 1,
        "content_type": 7
    },
    "model": "admin.logentry",
    "pk": 15
},
{
    "fields": {
        "action_flag": 3,
        "action_time": "2015-11-27T00:01:42.114Z",
        "object_repr": "Pieterd",
        "object_id": "3",
        "change_message": "",
        "user": 1,
        "content_type": 7
    },
    "model": "admin.logentry",
    "pk": 16
},
{
    "fields": {
        "action_flag": 3,
        "action_time": "2015-11-27T00:01:42.116Z",
        "object_repr": "Pieter",
        "object_id": "1",
        "change_message": "",
        "user": 1,
        "content_type": 7
    },
    "model": "admin.logentry",
    "pk": 17
},
{
    "fields": {
        "action_flag": 3,
        "action_time": "2015-11-27T00:17:26.830Z",
        "object_repr": "Pieter",
        "object_id": "4",
        "change_message": "",
        "user": 1,
        "content_type": 7
    },
    "model": "admin.logentry",
    "pk": 18
}
]
